Fake Data Tidymodel
…
set.seed(20210328)

nba.split <- initial_split(d)
d.train <- training(nba.split)
d.test <- testing(nba.split)

nba.fit <- nba.model %>% 
  fit(attendance~weekday + conf +opp_win_p + opp_all_stars + hwp + national_tv + time_fct, data=d.train)

predict(nba.fit,d.test)

## # A tibble: 2,500 x 1
##     .pred
##     <dbl>
##  1 13737.
##  2 16541.
##  3 12219.
##  4 16391.
##  5  9129.
##  6 14704.
##  7 10150.
##  8 17809.
##  9  8770.
## 10 16111.
## #  with 2,490 more rows
…
