Regression Modeling
…
Regression Modeling

Xuhao Dong

4/14/2021

Location

d1 %>%
  group_by(price) %>% 
  filter(!is.na(price))

## # A tibble: 25,776 x 11
## # Groups:   price [1,156]
##     post_id make   model  year odometer vin    title_status cylinders crumb_area
##       <dbl> <chr>  <fct> <dbl>    <dbl> <chr>  <chr>        <chr>     <chr>     
##  1   6.50e9 Subaru NA     2004   130000 jf1gd clean        4 cylind minneapol
##  2   6.49e9 Subaru NA     2011       NA NA     clean        NA        minneapol
##  3   6.50e9 Subaru NA     2013       NA NA     clean        NA        atlanta   
##  4   6.52e9 Subaru NA     2013    57900 NA     clean        4 cylind minneapol
##  5   6.49e9 Subaru NA     2014    47000 NA     rebuilt      4 cylind missoula  
##  6   6.50e9 Subaru NA     2004   172000 NA     clean        4 cylind minneapol
##  7   6.51e9 Subaru NA     1995   200700 NA     clean        NA        missoula  
##  8   6.51e9 Subaru NA     2006   130000 NA     clean        4 cylind atlanta   
##  9   6.51e9 Subaru NA     2013    60000 NA     lien         4 cylind atlanta   
## 10   6.50e9 Subaru NA     2010   144000 NA     clean        6 cylind missoula  
## #  with 25,766 more rows, and 2 more variables: crumb_subarea <chr>,
## #   price <dbl>
…
Linear Regression

## # A tibble: 4,724 x 11
##     post_id make   model  year odometer vin    title_status cylinders crumb_area
##       <dbl> <chr>  <fct> <dbl>    <dbl> <chr>  <chr>        <chr>     <chr>     
##  1   6.52e9 subaru fore  2003   141000 NA     clean        6 cylind atlanta   
##  2   6.51e9 subaru wrx    2002   119100 NA     clean        4 cylind atlanta   
##  3   6.52e9 subaru fore  2002   176500 JF1SF clean        4 cylind atlanta   
##  4   6.49e9 subaru trib  2007   127000 NA     clean        6 cylind atlanta   
##  5   6.47e9 subaru sti-  2015    15250 JF1VA lien         4 cylind atlanta   
##  6   6.51e9 subaru outb  2015    43000 4S4BS clean        6 cylind atlanta   
##  7   6.52e9 subaru outb  2004   164299 4S3BE rebuilt      4 cylind atlanta   
##  8   6.45e9 subaru outb  2007    75000 NA     clean        4 cylind atlanta   
##  9   6.50e9 subaru sti    2004   129000 NA     clean        4 cylind atlanta   
## 10   6.49e9 subaru wrx    2002      195 NA     clean        4 cylind atlanta   
## #  with 4,714 more rows, and 2 more variables: crumb_subarea <chr>,
## #   price <dbl>

## # A tibble: 3 x 5
##   term             estimate    std.error statistic p.value
##   <chr>               <dbl>        <dbl>     <dbl>   <dbl>
## 1 (Intercept) -1056395.     23594.           -44.8       0
## 2 year             534.        11.7           45.5       0
## 3 odometer          -0.0406     0.000993     -40.8       0

## # A tibble: 24 x 5
##    term                                    estimate std.error statistic  p.value
##    <chr>                                      <dbl>     <dbl>     <dbl>    <dbl>
##  1 (Intercept)                                7251.      679.    10.7   2.50e-26
##  2 crumb_areaminneapolis                       404.      182.     2.22  2.68e- 2
##  3 crumb_areamissoula                         1198.      265.     4.52  6.41e- 6
##  4 modelbrz                                   9389.      894.    10.5   1.68e-25
##  5 modelbrz-sti                              10501.     5630.     1.87  6.22e- 2
##  6 modelcrosstrek                             9905.      890.    11.1   1.89e-28
##  7 modelforester                             -1202.      694.    -1.73  8.35e- 2
##  8 modelforester-impreza-legacy-outback-w   -4655.     5626.    -0.827 4.08e- 1
##  9 modelforester-outback                     -2036.     3295.    -0.618 5.37e- 1
## 10 modelforester-xt                           1571.      872.     1.80  7.15e- 2
## #  with 14 more rows

## # A tibble: 24 x 5
##    term                       estimate   std.error statistic   p.value
##    <chr>                         <dbl>       <dbl>     <dbl>     <dbl>
##  1 (Intercept)           -1237784.     26555.        -46.6   0.       
##  2 year                       624.        13.2        47.3   0.       
##  3 odometer                    -0.0316     0.00107   -29.5   2.70e-171
##  4 crumb_areaminneapolis      301.       127.          2.38  1.76e-  2
##  5 crumb_areamissoula        1366.       181.          7.53  6.47e- 14
##  6 modelbrz                 -1230.       651.         -1.89  5.88e-  2
##  7 modelcrosstrek             361.       654.          0.552 5.81e-  1
##  8 modelforester            -3810.       527.         -7.23  6.09e- 13
##  9 modelforester-outback    -2871.      3294.         -0.872 3.83e-  1
## 10 modelforester-xt         -1742.       621.         -2.80  5.07e-  3
## #  with 14 more rows
…
